{"queryTime":"59 Seconds","totalCount":1132,"pageNumber":1,"perPage":200,"pageCount":200,"data":[{"id":1117088,"name":"BaT Irnmn DngDngDng","duration":5},{"id":121894,"name":"Bell Tower","duration":9},{"id":817466,"name":"Oso Echoed","duration":19},{"id":1039566,"name":"Train crossing","duration":7},{"id":1325514,"name":"Doorbell","duration":3},{"id":779053,"name":"Bell Sms","duration":10},{"id":996018,"name":"Twinkling Lights","duration":11},{"id":1250801,"name":"Cute Bells Ringing","duration":16},{"id":328786,"name":"Domme Bells","duration":19},{"id":925139,"name":"Temple Bell","duration":2},{"id":1176897,"name":"Chimer","duration":17},{"id":245482,"name":"Bell","duration":5},{"id":859130,"name":"Alarm Bell","duration":28},{"id":1132710,"name":"Olympics Swimming","duration":1},{"id":135299,"name":"Bell","duration":2},{"id":825475,"name":"Temple Bell","duration":2},{"id":1045711,"name":"Schoolbell","duration":4},{"id":2966,"name":"Merry Christmas","duration":27},{"id":1338412,"name":"Doorbell","duration":6},{"id":783140,"name":"Electronic Bell","duration":1},{"id":1008394,"name":"Temple Bell","duration":2},{"id":1269311,"name":"Pleasant Sms","duration":2},{"id":331364,"name":"Bell","duration":22},{"id":941646,"name":"Nokia N8 - Resonant","duration":27},{"id":1184809,"name":"Railroad Crossing","duration":7},{"id":264960,"name":"Digi Sms 2011","duration":3},{"id":866934,"name":"Happy Joy","duration":5},{"id":1143235,"name":"Bell","duration":4},{"id":152689,"name":"Christmas","duration":29},{"id":829885,"name":"Bell Sms Tone","duration":1},{"id":1054635,"name":"Deep Bell 4","duration":20},{"id":40137,"name":"Jingle Bell Rock (Party Remix)","duration":30},{"id":1346630,"name":"Door Bell","duration":1},{"id":797345,"name":"Msg Bell","duration":1},{"id":1016604,"name":"Saxophone","duration":24},{"id":1281426,"name":"Bell2","duration":10},{"id":353477,"name":"Undertaker Bell","duration":6},{"id":950309,"name":"S3 Alert Charming Be","duration":1},{"id":1207478,"name":"Boxing Bell","duration":4},{"id":309960,"name":"Door Bell","duration":1},{"id":880729,"name":"Gooon","duration":4},{"id":1147606,"name":"Rasta Bell Ringtone","duration":29},{"id":159826,"name":"Bell","duration":3},{"id":837513,"name":"Special Ring","duration":20},{"id":1089768,"name":"Alarm Bell","duration":14},{"id":55512,"name":"Sugar plum","duration":27},{"id":1355623,"name":"Bike Bell","duration":2},{"id":805234,"name":"Cutebell4ever","duration":16},{"id":1024632,"name":"Silent Hill Bells","duration":13},{"id":1304249,"name":"Bells","duration":1},{"id":363339,"name":"Boxing Bell","duration":2},{"id":975056,"name":"Sms Bell","duration":2},{"id":1220564,"name":"Hohoho","duration":3},{"id":312368,"name":"New Bell Sms 2010","duration":2},{"id":897014,"name":"Love Cupid","duration":16},{"id":1156676,"name":"Allview-Blip","duration":1},{"id":193986,"name":"Alarm Quickbel","duration":1},{"id":840592,"name":"Real Bell Sms","duration":3},{"id":1100217,"name":"School Bell Ringing","duration":12},{"id":108331,"name":"Clock Bell Alarm","duration":13},{"id":810667,"name":"Normal Ring","duration":2},{"id":1030758,"name":"Cellular Phone","duration":3},{"id":1315592,"name":"Cute Bells","duration":16},{"id":377439,"name":"Bell Message","duration":2},{"id":986980,"name":"Dream City","duration":29},{"id":1238945,"name":"Bell","duration":1},{"id":313181,"name":"Door Bell","duration":1},{"id":914570,"name":"Angry Bird 3","duration":29},{"id":1167979,"name":"MOUTH AND CUP","duration":1},{"id":212616,"name":"Door Ring","duration":1},{"id":849073,"name":"Msn Msg","duration":4},{"id":850515,"name":"Bell","duration":6},{"id":1117512,"name":"Bell song Dream","duration":11},{"id":122195,"name":"Planet Survival","duration":29},{"id":817728,"name":"Church Bell","duration":6},{"id":1039819,"name":"Big Ben","duration":21},{"id":1326096,"name":"Romanticmix","duration":26},{"id":779283,"name":"Bicycle Bell","duration":1},{"id":996110,"name":"Ding","duration":6},{"id":1250890,"name":"Bell Tower","duration":10},{"id":328859,"name":"Boxing Bell","duration":4},{"id":925423,"name":"Smsbell","duration":2},{"id":1178812,"name":"You Rang","duration":3},{"id":249151,"name":"Bell","duration":7},{"id":859339,"name":"Air One","duration":15},{"id":1133395,"name":"Crazy Diamond","duration":4},{"id":136363,"name":"Jingle Bells","duration":28},{"id":825507,"name":"Belltollsound","duration":11},{"id":1046797,"name":"throbbing bell sms","duration":8},{"id":2967,"name":"Jingle Bell","duration":28},{"id":1338479,"name":"Funny Bell","duration":3},{"id":784639,"name":"Door Bell","duration":2},{"id":1009281,"name":"Door Bell Sms","duration":2},{"id":1272081,"name":"Boxing Bell","duration":3},{"id":331443,"name":"Surround Bells","duration":28},{"id":941647,"name":"Nokia N8 Neon Smile","duration":29},{"id":1186774,"name":"Trolley Chime","duration":5},{"id":265362,"name":"New Galaxy Sms 2011","duration":4},{"id":867537,"name":"Bell-2012-","duration":17},{"id":1143857,"name":"Daisyabell","duration":2},{"id":153192,"name":"Christmas Bell","duration":15},{"id":829959,"name":"Iphone4 Bells Tone","duration":12},{"id":1055111,"name":"3D bell pro","duration":1},{"id":40177,"name":"Christmas Carol in Disney - RC Xmas R1","duration":29},{"id":1346786,"name":"Fast Bell Ringtone","duration":27},{"id":797675,"name":"Temple Bell","duration":2},{"id":1016605,"name":"Dreaming","duration":29},{"id":1281427,"name":"Bell 4","duration":3},{"id":354887,"name":"Under Taker Tone","duration":28},{"id":950402,"name":"S2 Basic Bell","duration":2},{"id":1207878,"name":"Bell Tolling","duration":28},{"id":310122,"name":"Vinnaithandi Varuvay","duration":24},{"id":880793,"name":"Down Chimes","duration":11},{"id":1147607,"name":"Bell Ringtone Bell","duration":29},{"id":161783,"name":"Cykelklocka","duration":1},{"id":837534,"name":"Nokia Sms","duration":2},{"id":1089769,"name":"School Bell","duration":12},{"id":55517,"name":"jingle bells","duration":17},{"id":1358249,"name":"New Doorbell 2","duration":6},{"id":805994,"name":"Ringtone","duration":4},{"id":1025940,"name":"KoBellan","duration":7},{"id":1304679,"name":"Bell Mix","duration":15},{"id":363714,"name":"Horn Sms","duration":4},{"id":975085,"name":"Temple Bell","duration":3},{"id":1221493,"name":"Bell","duration":16},{"id":312384,"name":"Dsbell","duration":16},{"id":898784,"name":"Opening Bell Ring","duration":4},{"id":1156681,"name":"Allview-Cely","duration":4},{"id":196596,"name":"Sms Bell","duration":3},{"id":840627,"name":"Hyutytyt","duration":26},{"id":1100228,"name":"Old Phone Bell","duration":26},{"id":109950,"name":"Bell","duration":1},{"id":810668,"name":"Bells Sms","duration":7},{"id":1030796,"name":"Mini Bell WhatsApp","duration":1},{"id":1315594,"name":"Lullaby Bells","duration":20},{"id":378458,"name":"Bell","duration":8},{"id":987926,"name":"Tick Tock Bell","duration":28},{"id":1239526,"name":"Electronic Bell","duration":3},{"id":313362,"name":"Best Sms 2010","duration":8},{"id":914815,"name":"Dream Bells","duration":8},{"id":1168036,"name":"EVIL HORROR BELL","duration":30},{"id":215365,"name":"Telephone Line","duration":20},{"id":851218,"name":"Temple Bell","duration":2},{"id":1120819,"name":"hunters bell","duration":6},{"id":122460,"name":"Sms Bell 2011","duration":2},{"id":817969,"name":"Bell 3d","duration":29},{"id":1041051,"name":"samsung","duration":2},{"id":1327424,"name":"Go Faster","duration":11},{"id":779459,"name":"Dj Bell Sms","duration":1},{"id":996182,"name":"Barfi Rimjhim","duration":19},{"id":1252625,"name":"Bell","duration":4},{"id":328909,"name":"Church Bell","duration":6},{"id":926178,"name":"Bells","duration":17},{"id":1180380,"name":"Boxing-bell","duration":4},{"id":251754,"name":"Temple Bell Sms","duration":2},{"id":859344,"name":"Air Two","duration":12},{"id":1133523,"name":"boxing bell","duration":2},{"id":136783,"name":"Home Bell","duration":4},{"id":826220,"name":"Cycle Bell","duration":2},{"id":1046818,"name":"Door Bell","duration":7},{"id":3889,"name":"Green tea (ring HTC HD2)","duration":20},{"id":1339142,"name":"Bells Sms","duration":3},{"id":785323,"name":"Ring Tone","duration":29},{"id":1009369,"name":"Bell","duration":2},{"id":1273324,"name":"Quiet Bell","duration":7},{"id":331914,"name":"Piano Ringtone","duration":28},{"id":941649,"name":"Nice Bells","duration":26},{"id":1186995,"name":"Zingel Bell Funny","duration":17},{"id":265463,"name":"Bell Sms","duration":5},{"id":868866,"name":"Bell","duration":17},{"id":1143858,"name":"daisyabell","duration":2},{"id":154848,"name":"Nice Bell","duration":12},{"id":830207,"name":"Bell Tree","duration":3},{"id":1083755,"name":"Magic guitar","duration":28},{"id":40269,"name":"We wish u a Hard X-Mas in MOS","duration":29},{"id":1347216,"name":"Ring Mix Bird","duration":16},{"id":797914,"name":"Tun Tun Tun Tun Tun","duration":1},{"id":1016614,"name":"Bucks Rock Gong","duration":9},{"id":1281428,"name":"Bell 5","duration":6},{"id":355181,"name":"Temple Bell","duration":2},{"id":954816,"name":"Bell Dark Hit","duration":4},{"id":1208317,"name":"Boxing","duration":2},{"id":310557,"name":"Twinkle Sms","duration":12},{"id":882411,"name":"Funnybell","duration":3},{"id":1147609,"name":"Bell Bell Ringtone B","duration":29},{"id":162459,"name":"Bells 2010","duration":7},{"id":837960,"name":"Simple Message Tone","duration":2},{"id":1089770,"name":"Hailuoto School Bell","duration":3},{"id":55637,"name":"Jingle Bell Rock (Party Remix)","duration":30},{"id":1359030,"name":"Bell","duration":2},{"id":806010,"name":"Love Bell Sms 2010","duration":4},{"id":1025964,"name":"Taco Bell Gong","duration":1},{"id":1305060,"name":"Bells","duration":16},{"id":363819,"name":"Sms Ghanta","duration":2},{"id":975143,"name":"Bell","duration":1},{"id":1222610,"name":"Super Bell Tone","duration":9},{"id":312520,"name":"Sweet Bell Message","duration":3},{"id":899339,"name":"Samsung Pure Bell","duration":2},{"id":1157312,"name":"Tsunami - Music Box","duration":24},{"id":196661,"name":"Htc Alarms - Bell","duration":1}]}