{"queryTime":"25 Seconds","totalCount":12483,"pageNumber":1,"perPage":200,"pageCount":200,"data":[{"id":88792,"name":":D","duration":30},{"id":345462,"name":"-toilet Msg","duration":7},{"id":289882,"name":"Sinchan Gila","duration":15},{"id":1177741,"name":"The Moon Part 2","duration":29},{"id":1219000,"name":"Clases De Mujeres","duration":25},{"id":1294249,"name":"Short Man","duration":29},{"id":250490,"name":"Okay You See","duration":10},{"id":347287,"name":"Indian Parrot","duration":20},{"id":891905,"name":"Annoying Tone","duration":15},{"id":1122423,"name":"Desiigner Chicken","duration":16},{"id":1194982,"name":"Hollaback Boy","duration":29},{"id":153722,"name":"Homero Call","duration":10},{"id":293870,"name":"Titititatitutu2","duration":8},{"id":806976,"name":"Mission Impossible","duration":5},{"id":975756,"name":"Osama Calling","duration":7},{"id":290871,"name":"Angry Phone","duration":22},{"id":1345673,"name":"Champi Funny","duration":29},{"id":1184944,"name":"Thats Amaziing","duration":1},{"id":1232233,"name":"Reklama Steammop","duration":29},{"id":1314434,"name":"Fart Remix","duration":12},{"id":252037,"name":"Russian Ringtone","duration":8},{"id":367923,"name":"Now Shut Up","duration":18},{"id":924832,"name":"Hanamanapa","duration":3},{"id":1172646,"name":"Low Chipmunks","duration":27},{"id":1206037,"name":"Annoying Person","duration":2},{"id":1263789,"name":"Dosni","duration":7},{"id":176572,"name":"Crazy Horse","duration":8},{"id":345629,"name":"Watch Dog","duration":29},{"id":849579,"name":"Pirates Funny","duration":24},{"id":1037964,"name":"A-GoatSim","duration":22},{"id":31720,"name":"10 Second Only","duration":17},{"id":292280,"name":"Phone Boss","duration":10},{"id":780545,"name":"Windows Remix","duration":28},{"id":1362315,"name":"Police Car Funny","duration":2},{"id":1246989,"name":"Break Yo Self","duration":1},{"id":1331004,"name":"Pinguinul","duration":29},{"id":253425,"name":"Hungry Babies","duration":27},{"id":1176486,"name":"Clever Boy","duration":19},{"id":1216335,"name":"Benjamin Im Knast","duration":29},{"id":1289942,"name":"Ffunnytone","duration":16},{"id":187576,"name":"Mai Taie Din Ele","duration":15},{"id":346962,"name":"Budjav Lebac","duration":28},{"id":882834,"name":"Answer The Phone","duration":25},{"id":1111386,"name":"Securiteeehhh","duration":3},{"id":1192110,"name":"Homer Garbage Man","duration":18},{"id":150220,"name":"Funny Ringtone 2011","duration":12},{"id":293576,"name":"Jewel Appear","duration":1},{"id":801432,"name":"Annoying Ringtone","duration":29},{"id":962187,"name":"Burglar Alarm","duration":17},{"id":290609,"name":"Jaldi Pherhoo","duration":6},{"id":1258986,"name":"Dorel Electrocutat","duration":25},{"id":1343456,"name":"Funny Message","duration":17},{"id":1183436,"name":"La Cucaracha","duration":14},{"id":1228926,"name":"Microsoft Song","duration":28},{"id":1309502,"name":"Funny Fat Guy","duration":19},{"id":251674,"name":"Apasa-l","duration":17},{"id":367617,"name":"Angry Cat New","duration":7},{"id":917105,"name":"Tamil Funny","duration":4},{"id":1165751,"name":"Seal Spin","duration":29},{"id":1203854,"name":"Nice Bavarian","duration":28},{"id":173135,"name":"Mama Boy","duration":16},{"id":345284,"name":"Kuater Kutting","duration":25},{"id":834674,"name":"Wanted Funny Dailoug","duration":23},{"id":1024644,"name":"Ralphio the worst","duration":4},{"id":30834,"name":"JingelBombs","duration":28},{"id":291945,"name":"Busy Here-slow","duration":29},{"id":776443,"name":"Funny  Lotta","duration":28},{"id":1358613,"name":"Funny Nokia Rap","duration":9},{"id":1243103,"name":"Moo  And Oink","duration":27},{"id":1327607,"name":"Balls Deep In Love","duration":29},{"id":253071,"name":"Police Looking 4 U","duration":12},{"id":951465,"name":"Mosfunnyt","duration":10},{"id":1175680,"name":"Di Tepi Kapal","duration":29},{"id":1213753,"name":"Sheep Remix","duration":10},{"id":1282498,"name":"Low Battery","duration":10},{"id":186226,"name":"Funny Amplfir","duration":21},{"id":346646,"name":"Japan Sms","duration":1},{"id":868200,"name":"Wakhawokhuwikhhi5","duration":4},{"id":1104269,"name":"That Laugh","duration":1},{"id":1189884,"name":"Transfusion","duration":23},{"id":144379,"name":"Pipppipipih","duration":7},{"id":293315,"name":"Funny Farts","duration":29},{"id":795883,"name":"I Cant Move","duration":6},{"id":290287,"name":"Scootery","duration":29},{"id":1256583,"name":"Your Ex-girlfreind","duration":11},{"id":1341793,"name":"Worms","duration":5},{"id":1181564,"name":"Upset Phone","duration":15},{"id":1225851,"name":"Dont Know What","duration":6},{"id":1304832,"name":"Narwhals Tune","duration":29},{"id":251262,"name":"Fun Funny","duration":29},{"id":348055,"name":"Alarm Funny","duration":16},{"id":906550,"name":"Mobile Ring","duration":24},{"id":1158956,"name":"Drinkenstein","duration":30},{"id":1202025,"name":"Illest Rhyme","duration":7},{"id":168010,"name":"Goundamani Shut","duration":1},{"id":344942,"name":"Mr Bean","duration":6},{"id":814660,"name":"You Have Aids","duration":26},{"id":1009613,"name":"Robot","duration":4},{"id":291616,"name":"Funny Parrot","duration":14},{"id":368606,"name":"Ghita","duration":30},{"id":1354423,"name":"Crazy Horse","duration":9},{"id":1239110,"name":"Crazy Hamster","duration":29},{"id":1323944,"name":"Curry Man","duration":7},{"id":252762,"name":"Funny Creepy Tone","duration":5},{"id":943918,"name":"Funny Chimpuk Tone","duration":16},{"id":1174740,"name":"Evil Message","duration":9},{"id":1211174,"name":"Silence I Fart You","duration":4},{"id":1274942,"name":"Duck Song","duration":14},{"id":184720,"name":"Ek Biladi Jadi Guj","duration":14},{"id":346358,"name":"Dirty Mind","duration":19},{"id":861812,"name":"Goa","duration":20},{"id":1092928,"name":"The Dictator","duration":29},{"id":1188096,"name":"I This The Way To","duration":29},{"id":88325,"name":"Peter Griffin Hehehe","duration":9},{"id":292981,"name":"Funny Nokia","duration":22},{"id":790388,"name":"Time 2 Die","duration":2},{"id":1253442,"name":"Mr-t Big Butts","duration":17},{"id":1338371,"name":"Soccer Funny","duration":14},{"id":1180003,"name":"The Vendor","duration":21},{"id":1222524,"name":"Chicken","duration":29},{"id":1299889,"name":"Shenanigans","duration":3},{"id":250956,"name":"In The Ghetto","duration":3},{"id":347645,"name":"Funny Meow","duration":15},{"id":899088,"name":"Doraemon Machine","duration":9},{"id":1137727,"name":"Sheshe Song","duration":26},{"id":1199201,"name":"Im A Gangster","duration":11},{"id":160137,"name":"Chicky Chic","duration":19},{"id":294287,"name":"Hey Sob","duration":2},{"id":810398,"name":"Paisa Funny","duration":24},{"id":996434,"name":"Hey Whats Goin On Ii","duration":26},{"id":291282,"name":"Laugh","duration":6},{"id":368308,"name":"Mexican Hat Dance","duration":12},{"id":1350234,"name":"Water Sms","duration":5},{"id":1186594,"name":"Pa El 3 Piernas Jaja","duration":6},{"id":1236482,"name":"Super Funny Veverite","duration":29},{"id":1319018,"name":"Cow Moo","duration":7},{"id":252448,"name":"Funny Loota","duration":29},{"id":933486,"name":"Hahahaha","duration":29},{"id":1173761,"name":"Waan","duration":3},{"id":1208771,"name":"Alko Alko","duration":29},{"id":1268846,"name":"Katakam Takam Vcut","duration":6},{"id":181656,"name":"Im About To Whip","duration":17},{"id":346045,"name":"Budzik","duration":27},{"id":853811,"name":"Funny Sunny Deol","duration":14},{"id":1084929,"name":"Love Popeyes Chicken","duration":3},{"id":57188,"name":"flaanders","duration":30},{"id":292701,"name":"Budhiya - Peepli Liv","duration":14},{"id":785947,"name":"Warning Phone","duration":7},{"id":1251073,"name":"T Times 2","duration":1},{"id":1335605,"name":"Killinascully","duration":29},{"id":289959,"name":"Twinkle Twinkle","duration":28},{"id":1178110,"name":"Ma Jedi","duration":29},{"id":1219379,"name":"Hey Sportsfreund","duration":2},{"id":1295676,"name":"Funny Hello","duration":16},{"id":250561,"name":"Baby","duration":29},{"id":347358,"name":"Te Amo","duration":15},{"id":892886,"name":"Foreign Language","duration":7},{"id":1124036,"name":"Cute Lady","duration":10},{"id":1195818,"name":"Pop Eye The Sailor","duration":22},{"id":154551,"name":"Daddy Donald","duration":29},{"id":293942,"name":"Chicken Funny","duration":5},{"id":807576,"name":"Ricky Bobby","duration":17},{"id":979090,"name":"Gas Today","duration":29},{"id":290954,"name":"Funny Luagh","duration":12},{"id":1346153,"name":"Homer","duration":9},{"id":1185194,"name":"Counter Strike","duration":27},{"id":1233044,"name":"Wakeup Call","duration":5},{"id":1315854,"name":"Funny Laugh","duration":5},{"id":252112,"name":"Bang Tidy Bird","duration":5},{"id":367996,"name":"Mary Had A Little","duration":7},{"id":925999,"name":"Water Bubbles","duration":5},{"id":1172950,"name":"Rv Chicken","duration":26},{"id":1206465,"name":"Turbo Funny","duration":22},{"id":1264628,"name":"No Es Lo Mismo","duration":7},{"id":177379,"name":"Jat Yamla","duration":27},{"id":345687,"name":"Funny Talk","duration":27},{"id":849841,"name":"Lunchablez","duration":27},{"id":1040473,"name":"Aerobics Song","duration":29},{"id":31983,"name":"funny fart","duration":28},{"id":292347,"name":"Banana Phone","duration":26},{"id":781387,"name":"Kreepys Mummy Rap","duration":20},{"id":1362948,"name":"Oh Shoot","duration":18},{"id":1247889,"name":"One Piece - Tako","duration":25},{"id":1332240,"name":"Paisa Paisa Funny","duration":28},{"id":289639,"name":"Saw","duration":29},{"id":1176588,"name":"Lol","duration":12},{"id":1217064,"name":"Wecker Amigo","duration":11},{"id":1291392,"name":"Funny Burp","duration":2},{"id":250199,"name":"Ringringh","duration":15},{"id":347009,"name":"Redneck","duration":26},{"id":882992,"name":"Voldemort Carlos","duration":25},{"id":1113487,"name":"Cough its working","duration":5},{"id":1192454,"name":"Chiken Farm Remix","duration":19},{"id":151003,"name":"Funny Waka Waka","duration":28},{"id":293616,"name":"Chainsaw","duration":21},{"id":802280,"name":"Mobile  Uthaaaaaaaaa","duration":9},{"id":964531,"name":"Fbaby Dj Laugh","duration":23},{"id":290659,"name":"Los Muchachos","duration":20},{"id":1259336,"name":"Spray Painting","duration":20},{"id":1344115,"name":"Real Men Of Genius","duration":26}]}